{
    "Eaf" :  95.0410281234793,
    "Af" : 12501201908240.6,
    "R" : 0.008314,
    "M" : 0.725,
    "logG0" : 0.87822,
    "Eac": 62.2143320308169,
    "Ac" : 36761544.9215155,
    "nReplicates": 200000
}
